<?xml version="1.0" encoding="utf-8"?>
<!-- Generator: Adobe Illustrator 21.1.0, SVG Export Plug-In . SVG Version: 6.00 Build 0)  -->
<svg version="1.1" id="Layer_1" xmlns="http://www.w3.org/2000/svg" xmlns:xlink="http://www.w3.org/1999/xlink" x="0px" y="0px"
	 viewBox="0 0 1112 178" style="enable-background:new 0 0 1112 178;" xml:space="preserve">
<style type="text/css">
	.st0{fill:#FFFFFF;}
</style>
<g>
	<g>
		<path class="st0" d="M11.5,111.4c-0.4-5.4-1.4-10.5-0.8-15.7c1.2-8.7,0.8-20.7-0.2-29.4c-1-10.3-0.2-20.9-1-31.4
			C7.5,15.3,19.3,15.7,33,14.3c1.4,0,3.1,0.6,4.5,0.8c9.1,1.2,18.2,0.8,27.5-0.8c4.3-0.8,11.2-0.6,14.9,2.5
			c2.7,2.5,4.5,6.4,2.7,11.2c-1.6,4.1-4.5,7.7-9.3,7.9c-5.6,0.4-11.2,0-16.7,0v-0.2c-5.6,0.4-11.2,0.6-16.7,1.2
			c-6,0.6-9.7,9.1-6.2,14.1c1,1.9,3.1,1.9,5,2.1c3.1,0,6.2,0,9.1,0.2c5.8,0.6,7.9,3.1,7.9,9.3c-0.2,6.6-1.6,10.3-8.1,10.7
			c-1.4,0.2-3.1,0-4.5,0.2c-9.1,0.8-9.9,0-9.9,8.7c0.2,7.4,0.2,18.4,0,25.8c-0.2,6.2-12.4,11.2-18,8.7
			C12.7,115.6,11.7,113.7,11.5,111.4z"/>
		<path class="st0" d="M103.5,99.6c-4.3-5.4-8.5-11.4-10.7-18c-4.1-11.4-3.1-36.6,7.9-47.3c4.1-4.1,8.7-7.9,12.8-12
			c10.3-10.1,24.6-9.1,37-10.5c11-1.2,19.2,5.6,28.9,5.8c1.2,0.2,2.5,1.4,3.7,2.5c15.1,12.4,21.9,25,22.1,44.9
			c0.2,10.5-4.1,21.9-9.3,30.4c-9.7,15.7-23.1,23.8-42.8,22.1c-5-0.4-9.9,0.8-14.9,0.4C122.3,116.8,112.2,110.2,103.5,99.6z
			 M179.2,73c0.4-4.1,1-8.1,1-12.2c0.2-10.3-6.4-25-21.5-25.8c-2.3-0.2-5.2-1-7.2-0.8c-7.2,0.6-15.7,0.4-22.3,5
			c-8.9,6.2-13,13.9-13.2,20.3c0,13.4,0.4,19.8,4.3,23.8c3.9,3.5,8.5,6.8,14.5,9.7C150.6,100.5,177.3,92.2,179.2,73z"/>
		<path class="st0" d="M255.1,112.9c-14.7-6.4-26.9-12.6-31.6-39.5c-2.1-12.2,1.4-26.7,5.2-32.7c10.3-16.5,26-27.1,46.3-28.3
			c59.7-4.1,67.6,39.7,65.7,58.1c-1.9,18.2-14.9,34.5-34.3,42.8C289,120.7,272.3,120.3,255.1,112.9z M315.3,70.1
			c5-17.8-6.2-35.6-31.2-35.6c-13.6,0-30.4,7.9-33.9,22.9c-5.8,23.6,11.2,39.9,34.7,39.1C305.3,95.9,311.9,81.2,315.3,70.1z"/>
		<path class="st0" d="M367,104.2c-1.4-11.4-1.2-20.9-0.8-32.2l-1.2-10.3c-0.6-4.8-0.8-9.7,0-14.7c1.2-8.1,1.2-16.1,1.2-24.2
			c-0.2-7.7,0.2-7.7,7.7-7.7h4.8c14.9-3.1,29.6,2.5,44.4,2.3c1.4,0,2.9,0.4,4.3,0.8c17.6,5.4,38.7,24,39.7,46.7l-0.6,0.2
			c0.6,2.7,1,5.2,0.8,6.6C465.8,81,460,89.3,453.8,97c-10.7,13.2-22.7,12.8-37.8,18.4c-11,3.7-24,3.9-35.3,3.3
			C371.8,118,368,112.9,367,104.2z M419.5,91.6c5-3.5,13.4-5.6,17.4-11.8c3.5-5.4,3.7-7.4,3.7-12c-1.4-8.1-3.1-14.7-9.7-20.9
			c-8.3-7.9-18.6-9.3-29.2-8.9c-3.9,0.2-7.2,1.9-8.9,4.8c-0.4,1.7-0.6,3.3-0.6,5v6.4c0.6,6.2,0.2,12.6,0,19v11.6
			c0,1.9,0.4,2.3,0.6,3.9c1.4,6.6,2.9,8.1,9.7,6.8C409.2,94.5,413.5,95.5,419.5,91.6z"/>
	</g>
	<g>
		<path class="st0" d="M185.7,166.4c-7.9,0-16.9-0.1-22.5-0.2c-2.5,0-4.4-0.1-5.1-0.1c-2.7,0-11.2-0.4-21.1-1
			c-10.3-0.5-22-1.1-25.5-1.1l-6.6,0c-12.7,0.1-39.2,0.3-53.5-0.1L16,163c-4.2-0.1-7.5-3.9-7.4-8.6c0.1-4.6,3.4-8.4,7.7-8.2
			l35.3,0.9c14.1,0.4,40.4,0.2,53,0.1l6.7,0c3.9,0,15.2,0.6,26.2,1.2c8.9,0.5,18.1,0.9,20.4,0.9c0.8,0,2.7,0,5.3,0.1
			c8.2,0.1,23.4,0.4,31.7,0.1c7.3-0.2,15.7-0.5,24.6-0.7c9.5-0.3,19.6-0.4,29.2-0.5c9-0.1,17.7-0.2,25-0.4
			c13.4-0.4,22.2-1.6,22.3-1.6c0.2,0,0.4,0,0.6-0.1l18.8-0.8c0.2,0,0.4,0,0.7,0l18.4,1l47.7-3.9l41.7-1.6c0.2,0,0.4,0,0.7,0
			l35.9,2.1c4.2,0.2,7.4,4.2,7.2,8.8c-0.2,4.6-3.9,8.1-8,7.9l-35.6-2.1l-41.1,1.6l-47.8,3.9c-0.3,0-0.6,0-0.9,0l-18.5-1l-18.1,0.8
			c-1.7,0.2-10.4,1.2-23.3,1.6c-7.4,0.2-16.1,0.3-25.3,0.4c-9.5,0.1-19.5,0.2-28.9,0.5c-8.8,0.3-17.3,0.5-24.6,0.7
			C192.7,166.3,189.3,166.4,185.7,166.4z"/>
	</g>
	<g>
		<path class="st0" d="M511.5,159.1c0.5-2.5,0.1-5.4,0.2-7.9c0-1.5-0.1-3.6-0.2-5.1c0-1.1-1.9-0.5-2.9-0.7c-0.7-0.2-1.2-0.1-1.9-0.1
			c-1.3,0-2.2-0.4-2.7-1.6c-0.5-1.2-0.3-2.1,0.5-3.2c0.1-0.1,0.4-0.3,0.4-0.3c1.3,0.5,2.5-0.3,3.5,0c1.8,0.7,3.9,0.2,5.9,0
			c1.6-0.2,3.3-0.6,4.7,0.1c0.5,0.3,1.9,0,3.2-0.2c1.1-0.2,2.1-0.1,2.8,1c0.7,1.2,0.7,2.1-0.2,3.2c-0.4,0.6-1,0.9-1.8,0.9
			c-0.7-0.1-1.3,0-2,0v-0.1c-0.5,0-1.1,0-1.6,0c-2.7,0-2.5,0.5-2.4,2.2c-0.4,3.2-0.4,6.6,0,9.9c0.1,0.9,0,1.9-0.1,2.9
			c-0.1,0.6-0.2,0.9-0.8,1.2c-1,0.3-2.9,0.4-3.5,0.1C511.6,160.9,511.3,160.1,511.5,159.1z"/>
		<path class="st0" d="M561.3,159.2c-0.3-1.9-0.3-1.3-0.4-3.1c0-2-0.9-2.7-3-2.8c-2-0.1-4-0.2-6,0.3c-1.8,0.3-2.1,1.1-2.2,2.9
			c-0.2,1.7,0.2,1.3,0,3c-0.1,1.4-0.3,1.7-1.7,2c-2.4,0.5-3.4-0.3-3.5-2.8c-0.1-1.6,0-3.2,0-4.9c0.6-1.3-0.1-7-0.3-10.5
			c0-1-0.4-2,0.9-2.7c0.7-0.6,2.9-0.5,3.4-0.2c0.9,0.6,1.4,1.3,1.4,2.4c0,0.4-0.1,3.9-0.1,4.4c0,0.9,0.5,1.4,1.4,1.4
			c1.3,0,2.7,0,3.9,0c1,0,3,0,4,0c1.7,0.1,1.7-1.3,1.8-5.2v-0.2c0-0.9-0.2-2.1,0.7-2.6c1.3-0.7,2.4-0.6,3.7,0
			c0.9,0.4,1.3,1.5,1.2,2.6c-0.1,2.8-0.3,5.5-0.2,8.3c0.1,2.6-0.2,5,0.2,7.6c0.2,1.4-0.4,2-1.8,2.2c-0.4,0.1-0.8,0.1-1.2,0.1
			C561.6,161.4,561.6,161.1,561.3,159.2z"/>
		<path class="st0" d="M591.2,161.2c-2.6,0.2-3.5-1-3.5-3.5c0-4.8-0.2-10.7-0.4-15.5c-0.1-1.4,0-1.9,1.4-1.9c2.9-0.3,9,0.1,12-0.1
			c1.2-0.1,2.6,0,3.8,0.3c1.2,0.3,1.3,2.7,0.8,3.4c-0.4,0.7-2.3,1-3.5,1c-1.7-0.3-5.7,0-7.4-0.1c-1.4,0-1.7,0.3-1.7,1.5
			c0,1.5,0.4,2,1.8,1.9c1.4,0,5-0.1,6.4,0c1.2,0.1,2,1,1.9,2.1c-0.1,1.1-1,1.8-2.2,1.7c-1.4-0.1-4.9,0-6.4,0.1
			c-1,0.1-1.2,0.5-1.2,1.3c0,0.4,0,1.5,0.1,1.9c0,0.9,0.5,1.4,1.5,1.5c1.7,0.1,5.6,0,7.3-0.2c1-0.1,1.8,0,2.7,0.2
			c1.3,0.3,2,1.3,1.9,2.5c-0.1,1.3-0.7,1.8-2.1,1.9c-1.2,0-2.4,0-3.5,0C598.8,161.4,593.4,161.1,591.2,161.2z"/>
		<path class="st0" d="M656.2,161.4c-0.9,0-1.7-0.2-2.5-0.5c-2-0.8-2.1-1-2-3.2c0-0.6,0-1.3,0-1.9c-0.1-3.1-0.3-7.6-0.2-8.4
			c0.1-0.8,0-1.3,0.1-2.1c0.1-1.1-0.2-1.7,0.3-3.1c0.2-0.6,0.4-1.2,0.9-1.3c2.3-0.5,4.6-0.7,7.1-0.5c2.1-0.7,2.6,0.3,4.9,0.4
			c0.9,0,1.7,0.6,2.3,1.5c0.8,1.2,1.6,2,1.7,3.5c0,0.5,0.1,1,0,1.6c-0.3,1.7-0.3,1.7,1.3,2.5c1.9,0.9,2.8,2.3,2.6,4.4
			c-0.2,2.2-0.9,4.1-2.4,5.6c-1.5,1.4-3.6,2-5.7,1.8C661.3,161.4,659.6,161.6,656.2,161.4z M661.3,157.2c1.8-0.3,1.8,0,3.6-0.3
			c1.1-0.2,1.8-0.7,2.3-1.6c0.4-0.6,0.3-1-0.4-1.3c-1.2-0.4-2.5-0.7-3.8-0.6c-1.8,0.2-2,0-3.8,0c-0.4,0-0.8,0-1.1,0
			c-0.8,0-1.2,0.4-1.2,1.2c0,0.5,0,0.9,0,1.4c0,0.9,0.3,1.3,1.3,1.2C659,157.2,660.2,157.2,661.3,157.2z M660.9,148.6L660.9,148.6
			c0.8,0-0.1,0.1,0.7,0c1.5,0,2.4-0.8,2.5-2.3c0-0.8-0.2-1.3-1.1-1.4c-1.9-0.3-2.2-0.3-4.1,0c-1.5,0.2-1.5,0.1-1.7,1.5
			c0,0.3-0.1,0.6-0.2,0.9c-0.1,1.1,0.1,1.4,1.3,1.4C659.1,148.7,659.9,148.6,660.9,148.6z"/>
		<path class="st0" d="M695.9,161.2c-2.6,0.2-3.5-1-3.5-3.5c0-4.8-0.2-10.7-0.4-15.5c-0.1-1.4,0-1.9,1.4-1.9c2.9-0.3,9,0.1,12-0.1
			c1.2-0.1,2.6,0,3.8,0.3c1.2,0.3,1.3,2.7,0.8,3.4c-0.4,0.7-2.3,1-3.5,1c-1.7-0.3-5.7,0-7.4-0.1c-1.4,0-1.7,0.3-1.7,1.5
			c0,1.5,0.4,2,1.8,1.9c1.4,0,5-0.1,6.4,0c1.2,0.1,2,1,1.9,2.1c-0.1,1.1-1,1.8-2.2,1.7c-1.4-0.1-4.9,0-6.4,0.1
			c-1,0.1-1.2,0.5-1.2,1.3c0,0.4,0,1.5,0.1,1.9c0,0.9,0.5,1.4,1.5,1.5c1.7,0.1,5.6,0,7.3-0.2c1-0.1,1.8,0,2.7,0.2
			c1.3,0.3,2,1.3,1.9,2.5c-0.1,1.3-0.7,1.8-2.1,1.9c-1.2,0-2.4,0-3.5,0C703.5,161.4,698.1,161.1,695.9,161.2z"/>
		<path class="st0" d="M730.6,159.1c-0.5-0.5-1.1-1-1.5-1.4c-0.9-0.9,1.3-3.7,2.2-3.7c0.9,0.1,1.4,1,2,1.5c1.1,0.9,2.6,2.1,4.1,2.2
			c0.7,0,1.8,0,2.2-0.9c0.6-0.5,0.7-1.8-0.3-2.5c-2.8-2.2-6.1-2.8-8.1-5.3c-0.8-1-1.1-2.8-0.8-4.1c0.3-1.6,1.2-3.3,3.4-4.4
			c1.7-0.9,6.6-1,9.4,1.1c1.3,0.9,1.4,2,0.4,3.3c-0.7,0.9-1.7,1.1-2.5,0.4c-0.9-0.7-2.1-0.9-3.1-1.4c-0.8-0.3-1.9-0.3-2.5,0.5
			c-0.5,0.6-0.8,1.8-0.2,2.3c1.7,1.6,4.4,2,6.2,3.4c0.9,0.6,4.8,2.9,3.1,7.3c-0.9,2.4-2.3,4.4-6.9,4.7
			C734.9,162.5,732,160.4,730.6,159.1z"/>
		<path class="st0" d="M770.8,161.6c-0.5,0-1-2.1-0.7-2.6c0.3-1.8,0.4-4.1,0.4-6.2c0-2.4-0.1-3.9-0.2-6.3c0-0.9-0.4-1-1.4-1.6
			c-0.4-0.2-4.4,0.1-5.4,0.2c-1.7,0.2-2.1-5.1-0.1-5c2.8,0.1,8.8,0,12.2,0.1c0.3,0,0.6,0,0.8,0.1c1.6,0,3.6,0.1,5.3-0.2
			c0.9-0.1,1.5,0.2,1.9,1c0.7,1.3,0.6,2.6-0.3,3.7c-0.7,0.9-1.2,1-2.3,0.5c-1.6-0.9-3.5-0.3-5.2-0.2c-0.3,0-0.5,0.3-0.6,0.7
			c-0.1,0.9-0.4,1.8-0.3,2.7c0.1,2.2-0.1,4.4,0.2,6.5c0.1,0.8-0.1,1.6-0.1,2.3c0,0.9-0.2,1.8,0,2.7c0.3,1.2,0,1.3-1.2,1.7
			C772.9,162.1,771.8,161.6,770.8,161.6z"/>
		<path class="st0" d="M830.1,158c-0.9-1.1-1.8-2.4-2.3-3.8c-0.9-2.4-0.7-7.6,1.7-9.9c0.9-0.9,1.8-1.6,2.7-2.5
			c2.2-2.1,5.2-1.9,7.8-2.2c2.3-0.3,4.1,1.2,6.1,1.2c0.3,0,0.5,0.3,0.8,0.5c3.2,2.6,4.6,5.2,4.7,9.4c0,2.2-0.9,4.6-2,6.3
			c-2.1,3.3-4.9,5-9.1,4.6c-1.1-0.1-2.1,0.2-3.2,0.1C834.1,161.6,831.9,160.2,830.1,158z M846.1,152.5c0.1-0.9,0.2-1.7,0.2-2.5
			c0-2.2-1.4-5.2-4.6-5.4c-0.5,0-1.1-0.2-1.5-0.2c-1.5,0.1-3.3,0.1-4.7,1c-1.9,1.3-2.8,2.9-2.8,4.2c0,2.8,0.1,4.1,0.9,5
			c0.8,0.7,1.8,1.4,3.1,2C840.1,158.2,845.7,156.5,846.1,152.5z"/>
		<path class="st0" d="M871.8,160.5c-0.1-1.1-0.3-2.2-0.2-3.3c0.3-1.8,0.2-4.3,0-6.1c-0.2-2.2,0-4.4-0.2-6.6c-0.4-4.1,2.1-4,5-4.3
			c0.3,0,0.7,0.1,1,0.2c1.9,0.3,3.9,0.2,5.8-0.2c0.9-0.2,2.4-0.1,3.2,0.5c0.6,0.5,1,1.3,0.6,2.3c-0.3,0.9-1,1.6-2,1.6
			c-1.2,0.1-2.4,0-3.5,0v0c-1.2,0.1-2.4,0.1-3.5,0.3c-1.3,0.1-2.1,1.9-1.3,2.9c0.2,0.4,0.7,0.4,1.1,0.4c0.7,0,1.3,0,1.9,0
			c1.2,0.1,1.7,0.6,1.7,1.9c0,1.4-0.4,2.2-1.7,2.2c-0.3,0-0.7,0-1,0c-1.9,0.2-2.1,0-2.1,1.8c0,1.6,0,3.8,0,5.4
			c0,1.3-2.6,2.3-3.8,1.8C872,161.4,871.8,161,871.8,160.5z"/>
		<path class="st0" d="M932,158.5c0.1-3.1,0.1-6.1,0.2-9.1c0-2.1-0.3-5.2-0.3-7.3c0-1.5,1.1-1.4,2.5-1.7c1.3-0.3,2.6,0,3,1.5
			c0.4,1.6,0,3.3,0.1,5.2c-0.1,2.9,0.1,5.6,0.1,8.7c0,1,0.5,1.4,1.4,1.3c1,0,2-0.1,3,0c0.8,0,1.5,0.1,2.3,0.4
			c1.4,0.6,1.9,1.9,1.4,3.3c-0.1,0.4-0.4,0.6-0.8,0.7c-0.7,0.1-1.5,0.4-2.3,0.2c-2.1-0.4-4.2-0.5-6.2,0c-0.3,0.1-0.7,0.1-1,0.1
			C933.3,161.9,931.9,161.3,932,158.5z"/>
		<path class="st0" d="M965.1,158c-0.9-1.1-1.8-2.4-2.3-3.8c-0.9-2.4-0.7-7.6,1.7-9.9c0.9-0.9,1.8-1.6,2.7-2.5
			c2.2-2.1,5.2-1.9,7.8-2.2c2.3-0.3,4.1,1.2,6.1,1.2c0.3,0,0.5,0.3,0.8,0.5c3.2,2.6,4.6,5.2,4.7,9.4c0,2.2-0.9,4.6-2,6.3
			c-2.1,3.3-4.9,5-9.1,4.6c-1.1-0.1-2.1,0.2-3.2,0.1C969.1,161.6,966.9,160.2,965.1,158z M981.1,152.5c0.1-0.9,0.2-1.7,0.2-2.5
			c0-2.2-1.4-5.2-4.6-5.4c-0.5,0-1.1-0.2-1.5-0.2c-1.5,0.1-3.3,0.1-4.7,1c-1.9,1.3-2.8,2.9-2.8,4.2c0,2.8,0.1,4.1,0.9,5
			c0.8,0.7,1.8,1.4,3.1,2C975.1,158.2,980.7,156.5,981.1,152.5z"/>
		<path class="st0" d="M1014.4,161.8c-0.6,0-1.2-0.1-1.7-0.4c-5-2.2-5.8-3.8-7.2-6.5c-0.2-0.3-0.4-3.3-0.4-3.7
			c0.2-4.3,2.5-6.2,3.5-7.3c1.1-1.2,2.8-2.2,4.6-2.9c2.1-0.9,5-1.2,7.3-0.9c0.5,0.1,1.1,0,1.5,0.2c4.5,1.4,6.2,4.2,6.2,4.2
			c0.1,0.9,0,1.5-0.8,1.9c-1.2,0.6-1.9,0.8-2.7,0.6c-0.7-0.3-1.3-0.9-2.7-1.9c-0.5-0.4-2.2-0.7-2.8-0.7c-2,0.1-3.7,0.2-5.4,1.4
			c-1.5,1.1-3.3,2.4-3.2,5c0,1.9,0.6,3.3,1.8,4.6c0.5,0.6,1.1,0.9,1.8,1.2c1.7,0.6,3.2,0.9,5.6,0.7c1.4-0.1,3.3-0.7,4.1-1.3
			c0.6-0.5,1.6-1.3,2.3-1.7c0.4-0.3,2.1,0.9,2.5,1.6c0.4,0.7,0.1,1.7-0.7,2.3c-3.8,2.7-7,4-11.9,3.5
			C1015.4,161.8,1014.8,161.8,1014.4,161.8z"/>
		<path class="st0" d="M1046,160.1c-0.2-0.6,0-1.1,0.2-1.7c0.2-0.9,1.1-1.3,1.4-2.1c1.5-3.8,2.9-8.4,5.2-11.8c0.4-0.6,0.7-1.4,1-2.1
			c0.9-2.1,1.1-2.2,3.4-2c0.7,0,1.5,0.1,2.3-0.2c0.9-0.4,1.1,0.2,1.5,0.9c1.3,2.2,2.5,4.5,3.4,6.9c0.5,1.4,1.1,3.6,1.8,5
			c0.9,1.9,2,4.1,3,6c0.6,1.2,0.4,1.3-1.1,1.6c-0.4,0.1-0.2,0.3-0.6,0.4c-1.5,0.3-2.5,0-3.3-1.4l-0.3-0.5c-0.8-1.6-1.8-2.5-4.1-2.2
			c-1.7,0.3-3.5,0-5.3,0c-1.8,0-2.5,0-3,1.7c-0.2,0.6-0.5,1.2-0.8,1.8c-0.6,1-1.6,1.5-2.2,0.8C1047.7,160.5,1046.3,161.3,1046,160.1
			z M1060.5,152.6c0.1-0.3-0.1-0.6-0.3-0.9c-0.5-0.6-1.3-3.3-1.6-3.9c-0.2-0.4-0.2-1-0.7-1.1c-0.6-0.1-0.8,0.6-1.1,0.9
			c-0.1,0.2-0.2,0.3-0.3,0.5c-0.4,0.7-1.8,3.9-1.6,4.3c0.4,0.8,2.6,0.2,3.9,0.3l0.7,0.1C1059.8,152.9,1060.2,153,1060.5,152.6z"/>
		<path class="st0" d="M1088.2,158.5c0.1-3.1,0.1-6.1,0.2-9.1c0-2.1-0.3-5.2-0.3-7.3c0-1.5,1.1-1.4,2.5-1.7c1.3-0.3,2.6,0,3,1.5
			c0.4,1.6,0,3.3,0.1,5.2c-0.1,2.9,0.1,5.6,0.1,8.7c0,1,0.5,1.4,1.4,1.3c1,0,2-0.1,3,0c0.8,0,1.5,0.1,2.3,0.4
			c1.4,0.6,1.9,1.9,1.4,3.3c-0.1,0.4-0.4,0.6-0.8,0.7c-0.7,0.1-1.5,0.4-2.3,0.2c-2.1-0.4-4.2-0.5-6.2,0c-0.3,0.1-0.7,0.1-1,0.1
			C1089.6,161.9,1088.2,161.3,1088.2,158.5z"/>
	</g>
	<g>
		<g>
			<path class="st0" d="M527.6,111.7c-1.9-10.4-7.3-19.6-11.5-29.2c-7.5-16.9-13.8-34.5-23.2-50.7c-3.3-5.6,1.9-13.2,9.4-14.4
				c1.2-0.2,2.5,0.2,4.8,0.2c5.8-0.6,9.6,2.3,12.5,8.3c2.7,5.6,5.4,11.3,6.1,17.1c1,10.4,9.4,16.7,12.7,25.7c1.5,3.8,5,0.8,6.5-1.7
				c4.6-7.9,9.2-15.7,13.2-23.6c2.7-5.6,6.3-8.8,9.8-13.8c4-5.4,9.6-7.7,15.9-6.9c6.9,1,9.8,6.7,11.1,12.1
				c2.7,12.9,10,23.6,16.1,34.7c1.5,2.5,2.7,4.4,5.8,4.4c2.7-0.2,4.2-2.3,4.6-4.4c3.6-16.1,13.8-28.2,18-43.6
				c2.5-9.6,16.1-12.7,23.8-6.5c3.3,2.5,4.4,6.5,1.9,11.1c-5.4,10.4-9.8,21.5-15.7,31.7c-4,7.3-5,17.5-8.6,24.8
				c-3.3,7.1-7.5,14-10.4,21.5c-2.1,5.6-6.1,10-12.5,10.4c-7.1,0.4-11.5-3.8-14.2-9.6c-6.1-13.6-11.5-27.1-17.3-40.7
				c-0.2-0.6-0.2-1.2-0.4-1.9c-2.1-4-2.5-10.2-7.1-10.6c-4.8-0.4-4.8,5.8-6.7,9.4c-4,7.3-7.7,13.2-11.3,20.7
				c-2.3,4.8-4.8,9.8-5,15.4c-0.2,5.4-4,9.4-6.7,13.8c-2.7,4.2-7.7,4.2-12.3,3.6C532.4,118.4,528.4,116.3,527.6,111.7z"/>
			<path class="st0" d="M682.2,102.3c-4.4-5.4-8.6-11.5-10.9-18.2c-4.2-11.5-3.1-37,7.9-47.8c4.2-4.2,8.8-7.9,12.9-12.1
				c10.4-10.2,24.8-9.2,37.4-10.7c11.1-1.2,19.4,5.6,29.2,5.8c1.3,0.2,2.5,1.5,3.8,2.5c15.2,12.5,22.1,25.3,22.3,45.3
				c0.2,10.6-4.2,22.1-9.4,30.7c-9.8,15.9-23.4,24-43.2,22.3c-5-0.4-10,0.8-15,0.4C701.2,119.7,691,113,682.2,102.3z M758.7,75.4
				c0.4-4.2,1-8.1,1-12.3c0.2-10.4-6.5-25.3-21.7-26.1c-2.3-0.2-5.2-1-7.3-0.8c-7.3,0.6-15.9,0.4-22.6,5c-9,6.3-13.2,14-13.4,20.5
				c0,13.6,0.4,20,4.4,24c4,3.6,8.6,6.9,14.6,9.8C729.8,103.2,756.8,94.8,758.7,75.4z"/>
			<path class="st0" d="M805.7,110.5c-2.5-8.1-1.2-16.3-1.7-24.2c-0.4-13.4-2.3-24.4-1.5-37.8c0.4-5.8,0.6-11.9,0.6-17.7
				c0.2-12.5,4.2-12.9,10.9-14.8c12.5-3.5,25.5,0.2,38-0.8c6.1-0.4,13.8-0.6,19,3.3c1.9,1.5,9.6,5.4,11.9,8.8
				c10,14.2,8.8,21.3,1.3,35.7c-1.3,2.3-4.4,3.3-5.4,6.1c-1,3.1-6.3,4.6-5,8.4c1.7,4.6,4.2,10.9,8.1,14c3.1,2.5,4.8,9.8,11.1,13.4
				c1.9,1,2.3,3.8,1.2,6.1c-5.8,11.3-16.9,13.8-27.1,6.1c-6.5-4.8-13.6-14-14.6-19.6c-0.6-3.1-3.6-6.7-6.1-4.6
				c-2.5,2.1-5.6,3.3-8.6,4.4c-5.6,1.9-8.6,9.6-8.6,16.3c-0.2,4.6-4,5.8-7.7,6.5c-2.1,0.4-4.4,0.4-6.5,0
				C810.5,118.8,807.6,117,805.7,110.5z M856.5,60.8c12.9-10,12.7-26.7-23-25.1c-3.6,0.2-5.2,1.5-5.2,5c0,11.3-0.4,20.5-0.4,31.5
				c0,5.2,0.6,5.2,5.6,3.1C842.3,71.6,849,66.6,856.5,60.8z"/>
			<path class="st0" d="M913.4,104.4c0.2-2.7,0.2-5.6,0.2-8.4c0-2.5-0.2-5-0.4-9.4c-2.5-12.5,1.5-26.7,0.4-41.1
				c-0.4-5.6-0.4-12.1,0-17.7c0.8-7.7,6.1-11.3,15.4-11.3c7.5,0.2,10.4,3.3,11.5,11.9c1.3,9-1.5,14.6-0.2,27.1
				c0.4,4.2,3.3,6.3,6.7,3.6c4.8-3.1,6.5-5.8,9.4-10.7c5.2-8.8,16.7-18.6,22.8-26.5c3.6-5,20-6.3,25.5-3.1c2.7,1.7,3.1,4.8,0,7.9
				c-7.7,7.3-17.5,19.6-24.6,27.6c-6.1,6.7-5.6,7.5,2.3,12.3c8.3,5,13.4,10.7,16.1,20.5c1.5,6.3,4.6,13.6,4.6,19.6
				c0.2,7.1-0.2,10.4-4.4,11.9c-3.8,1.2-14.6,1.9-18.4-1.5c-3.1-2.7-2.7-6.3-2.5-9.4c0.8-10.9-1.9-17.7-10.4-23.2
				c-8.1-5-15.4-2.9-24-1.9c-3.3,0.4-4.2,3.6-4,6.5c0,6.3,0,12.5,0.2,18.8c0.2,7.1-5.2,12.3-12.3,11.9
				C918.6,119.3,912.9,113,913.4,104.4z"/>
			<path class="st0" d="M1021.8,101.7c-1.9-1.9-1.9-4.8,0-7.3c1.9-2.5,3.8-4.6,6.1-6.7c2.7-2.3,5.6-3.3,8.8-1c2.3,1.7,5,2.7,6.9,4.6
				c6.9,7.1,6.1,5.8,15.5,7.7c6.1,1.5,15,1.9,19.2-1.7c4.4-4.2,5.6-5.6,4.4-10.2c-1.9-5-11.1-7.5-15.7-8.8
				c-6.5-1.5-11.1-4.8-17.5-5.8c-7.5-1.3-9.6-5-16.3-7.9c-8.1-3.5-12.9-18.4-8.8-28.4c4.6-10.7,11.3-15.2,20-19.6
				c5.2-2.5,12.9-1.5,18-2.7c10.4-0.2,19.8,2.3,28.8,6.1c11.9,5,10.7,11.3,9.4,15.2c-1.9,5.8-6.5,10.9-11.9,9
				c-4.4-3.3-6.3-4.6-11.5-7.3c-7.1-3.3-15.5-4.6-23.4-1.7c-7.9,2.9-9.2,12.1-3.6,14.6c6.1,3.8,16.7,8.4,25.3,9.8
				c11.9,4.2,20.7,6.5,27.6,17.7c3.3,5.4,3.6,14.2-1.7,24.6c-4.8,9.8-11.1,13.4-20.3,17.5c-7.9,3.3-22.8,3.3-30.7,1
				C1037,116.1,1033.7,113,1021.8,101.7z"/>
		</g>
	</g>
</g>
</svg>
