<?xml version="1.0" encoding="UTF-8"?>
<svg width="60px" height="49px" viewBox="0 0 60 49" version="1.1" xmlns="http://www.w3.org/2000/svg" xmlns:xlink="http://www.w3.org/1999/xlink">
    <!-- Generator: Sketch 47.1 (45422) - http://www.bohemiancoding.com/sketch -->
    <title>feature-pipeline</title>
    <desc>Created with Sketch.</desc>
    <defs></defs>
    <g id="Website" stroke="none" stroke-width="1" fill="none" fill-rule="evenodd">
        <g id="Artboard" transform="translate(-687.000000, -1279.000000)" fill-rule="nonzero" fill="#5484FF">
            <g id="feature-pipeline" transform="translate(687.000000, 1279.000000)">
                <path d="M57,48.995 C57,48.995 53,48.995 53,48.995 C53,48.995 47,48.995 47,48.995 C47,48.995 43,48.995 43,48.995 C43,48.995 37,48.995 37,48.995 C37,48.995 33,48.995 33,48.995 C33,48.995 27,48.995 27,48.995 C27,48.995 23,48.995 23,48.995 C23,48.995 17,48.995 17,48.995 C17,48.995 13,48.995 13,48.995 C13,48.995 7,48.995 7,48.995 C7,48.995 3,48.995 3,48.995 C1.346,48.995 0,47.65 0,45.995 C0,45.995 0,3.994 0,3.994 C0,2.34 1.346,0.994 3,0.994 C3,0.994 57,0.994 57,0.994 C58.654,0.994 60,2.34 60,3.994 C60,3.994 60,45.995 60,45.995 C60,47.65 58.654,48.995 57,48.995 Z M52,46.995 C52,46.995 52,16.995 52,16.995 C52,16.995 48,16.995 48,16.995 C48,16.995 48,46.995 48,46.995 C48,46.995 52,46.995 52,46.995 Z M38,46.995 C38,46.995 42,46.995 42,46.995 C42,46.995 42,8.995 42,8.995 C42,8.995 38,8.995 38,8.995 C38,8.995 38,46.995 38,46.995 Z M28,46.995 C28,46.995 32,46.995 32,46.995 C32,46.995 32,22.995 32,22.995 C32,22.995 28,22.995 28,22.995 C28,22.995 28,46.995 28,46.995 Z M18,46.995 C18,46.995 22,46.995 22,46.995 C22,46.995 22,31.995 22,31.995 C22,31.995 18,31.995 18,31.995 C18,31.995 18,46.995 18,46.995 Z M8,46.995 C8,46.995 12,46.995 12,46.995 C12,46.995 12,36.995 12,36.995 C12,36.995 8,36.995 8,36.995 C8,36.995 8,46.995 8,46.995 Z M58,3.994 C58,3.443 57.551,2.995 57,2.995 C57,2.995 3,2.995 3,2.995 C2.449,2.995 2,3.443 2,3.994 C2,3.994 2,45.995 2,45.995 C2,46.547 2.449,46.995 3,46.995 C3,46.995 6,46.995 6,46.995 C6,46.995 6,35.995 6,35.995 C6,35.443 6.448,34.995 7,34.995 C7,34.995 13,34.995 13,34.995 C13.552,34.995 14,35.443 14,35.995 C14,35.995 14,46.995 14,46.995 C14,46.995 16,46.995 16,46.995 C16,46.995 16,30.995 16,30.995 C16,30.443 16.448,29.995 17,29.995 C17,29.995 23,29.995 23,29.995 C23.552,29.995 24,30.443 24,30.995 C24,30.995 24,46.995 24,46.995 C24,46.995 26,46.995 26,46.995 C26,46.995 26,21.995 26,21.995 C26,21.443 26.448,20.995 27,20.995 C27,20.995 33,20.995 33,20.995 C33.552,20.995 34,21.443 34,21.995 C34,21.995 34,46.995 34,46.995 C34,46.995 36,46.995 36,46.995 C36,46.995 36,7.995 36,7.995 C36,7.442 36.448,6.995 37,6.995 C37,6.995 43,6.995 43,6.995 C43.552,6.995 44,7.442 44,7.995 C44,7.995 44,46.995 44,46.995 C44,46.995 46,46.995 46,46.995 C46,46.995 46,15.995 46,15.995 C46,15.443 46.448,14.995 47,14.995 C47,14.995 53,14.995 53,14.995 C53.552,14.995 54,15.443 54,15.995 C54,15.995 54,46.995 54,46.995 C54,46.995 57,46.995 57,46.995 C57.551,46.995 58,46.547 58,45.995 C58,45.995 58,3.994 58,3.994 Z M25,8.995 C25,8.995 7,8.995 7,8.995 C6.448,8.995 6,8.547 6,7.995 C6,7.442 6.448,6.995 7,6.995 C7,6.995 25,6.995 25,6.995 C25.552,6.995 26,7.442 26,7.995 C26,8.547 25.552,8.995 25,8.995 Z M7,10.995 C7,10.995 21,10.995 21,10.995 C21.552,10.995 22,11.442 22,11.995 C22,12.547 21.552,12.995 21,12.995 C21,12.995 7,12.995 7,12.995 C6.448,12.995 6,12.547 6,11.995 C6,11.442 6.448,10.995 7,10.995 Z" id="Shape"></path>
            </g>
        </g>
    </g>
</svg>